"ID","URL","Build information","Observed behaviour","Expected behaviour","Steps to reproduce","Stack trace","Screenshots","Code examples","App Code","Error reports","Test Cases"
150,"https://bugs.eclipse.org/bugs/show_bug.cgi?id=150",,"D","D",,,,,,,
1667,"https://bugs.eclipse.org/bugs/show_bug.cgi?id=1667",,"D",,"D",,,"D",,,
1942,"https://bugs.eclipse.org/bugs/show_bug.cgi?id=1942",,,"D",,,,,,,
2891,"https://bugs.eclipse.org/bugs/show_bug.cgi?id=2891",,"D",,"C",,,,,,
3553,"https://bugs.eclipse.org/bugs/show_bug.cgi?id=3553",,"D","D","D",,,,,,
4207,"https://bugs.eclipse.org/bugs/show_bug.cgi?id=4207",,"D","D",,,,,,,
5314,"https://bugs.eclipse.org/bugs/show_bug.cgi?id=5314",,"D",,"D",,,,,,
5603,"https://bugs.eclipse.org/bugs/show_bug.cgi?id=5603",,"D","D",,,"AC",,"D",,
5820,"https://bugs.eclipse.org/bugs/show_bug.cgi?id=5820","D","D",,"D",,,,,,
6518,"https://bugs.eclipse.org/bugs/show_bug.cgi?id=6518",,"D",,,"D",,"D",,"D",
6750,"https://bugs.eclipse.org/bugs/show_bug.cgi?id=6750",,"D","D",,,,,"D",,
7485,"https://bugs.eclipse.org/bugs/show_bug.cgi?id=7485",,"D",,"D",,,"D",,,
7714,"https://bugs.eclipse.org/bugs/show_bug.cgi?id=7714",,"D","D","D",,,,,,
9983,"https://bugs.eclipse.org/bugs/show_bug.cgi?id=9983",,"D",,"D",,,,,,
11184,"https://bugs.eclipse.org/bugs/show_bug.cgi?id=11184",,"D",,,,,,,,
12034,"https://bugs.eclipse.org/bugs/show_bug.cgi?id=12034",,"D","D","D",,,,,,
12415,"https://bugs.eclipse.org/bugs/show_bug.cgi?id=12415","D","D",,,"D",,,,"D",
13868,"https://bugs.eclipse.org/bugs/show_bug.cgi?id=13868","D","D","D","D",,,,,,
14774,"https://bugs.eclipse.org/bugs/show_bug.cgi?id=14774","D","D",,"D",,,,,,
16015,"https://bugs.eclipse.org/bugs/show_bug.cgi?id=16015","D","D","D","D",,,,,,
16207,"https://bugs.eclipse.org/bugs/show_bug.cgi?id=16207","D","D","D","D",,,,,,
16643,"https://bugs.eclipse.org/bugs/show_bug.cgi?id=16643","D","D","D","D",,,,,"D",
17063,"https://bugs.eclipse.org/bugs/show_bug.cgi?id=17063",,"T",,,,,,,,
17740,"https://bugs.eclipse.org/bugs/show_bug.cgi?id=17740",,"D",,"D",,,,"C",,
23920,"https://bugs.eclipse.org/bugs/show_bug.cgi?id=23920","D","D",,"D",,,,,,
24050,"https://bugs.eclipse.org/bugs/show_bug.cgi?id=24050",,,"D",,,,,,,
24679,"https://bugs.eclipse.org/bugs/show_bug.cgi?id=24679",,"D","D",,,,,,,
24924,"https://bugs.eclipse.org/bugs/show_bug.cgi?id=24924","D","D","D","D",,,"D","C",,
25124,"https://bugs.eclipse.org/bugs/show_bug.cgi?id=25124","D","D",,"D","D",,"D",,"D",
25581,"https://bugs.eclipse.org/bugs/show_bug.cgi?id=25581",,"D",,"D",,,,,,
26622,"https://bugs.eclipse.org/bugs/show_bug.cgi?id=26622","D",,"D",,,,,,,
27850,"https://bugs.eclipse.org/bugs/show_bug.cgi?id=27850",,"D","D",,,,,"AC",,
28949,"https://bugs.eclipse.org/bugs/show_bug.cgi?id=28949",,"D","D",,,,"D","AC",,"AC"
29860,"https://bugs.eclipse.org/bugs/show_bug.cgi?id=29860",,,"D",,,,,,,
31194,"https://bugs.eclipse.org/bugs/show_bug.cgi?id=31194",,,"D",,,,,,,
32064,"https://bugs.eclipse.org/bugs/show_bug.cgi?id=32064",,"D","D",,,,,"D",,
33007,"https://bugs.eclipse.org/bugs/show_bug.cgi?id=33007","D","D","D","D",,,"D",,,
33259,"https://bugs.eclipse.org/bugs/show_bug.cgi?id=33259",,"D",,,,,,,"D",
34192,"https://bugs.eclipse.org/bugs/show_bug.cgi?id=34192","D","D",,"D",,,,,,
34899,"https://bugs.eclipse.org/bugs/show_bug.cgi?id=34899","D","D","D",,,,,"D",,
35657,"https://bugs.eclipse.org/bugs/show_bug.cgi?id=35657","D","D","D","D","D",,,"C","D",
36346,"https://bugs.eclipse.org/bugs/show_bug.cgi?id=36346",,"D","D",,,,,,,
36945,"https://bugs.eclipse.org/bugs/show_bug.cgi?id=36945",,,"D",,,,,,,
38606,"https://bugs.eclipse.org/bugs/show_bug.cgi?id=38606",,"D",,"D",,,"D",,,
39493,"https://bugs.eclipse.org/bugs/show_bug.cgi?id=39493",,"D",,,,,"C","C",,"C"
40275,"https://bugs.eclipse.org/bugs/show_bug.cgi?id=40275",,"D","D",,,,,,,
40357,"https://bugs.eclipse.org/bugs/show_bug.cgi?id=40357","D","D","D",,,,,,,
40569,"https://bugs.eclipse.org/bugs/show_bug.cgi?id=40569",,,"D",,,,"D",,,
40726,"https://bugs.eclipse.org/bugs/show_bug.cgi?id=40726",,"D","D",,,,,,"C",
41836,"https://bugs.eclipse.org/bugs/show_bug.cgi?id=41836",,"D",,"D",,,,,,
41883,"https://bugs.eclipse.org/bugs/show_bug.cgi?id=41883",,"D","D",,,,,"C",,
42562,"https://bugs.eclipse.org/bugs/show_bug.cgi?id=42562",,,"D",,,,,,,
43057,"https://bugs.eclipse.org/bugs/show_bug.cgi?id=43057","D","D",,"D",,,,,,
43177,"https://bugs.eclipse.org/bugs/show_bug.cgi?id=43177","D","D","D",,,,,"D",,
47529,"https://bugs.eclipse.org/bugs/show_bug.cgi?id=47529",,,,,,,,,,
48130,"https://bugs.eclipse.org/bugs/show_bug.cgi?id=48130",,"D",,"D","AC",,,,"AC",
48995,"https://bugs.eclipse.org/bugs/show_bug.cgi?id=48995","D",,,"D",,,"D",,,
50175,"https://bugs.eclipse.org/bugs/show_bug.cgi?id=50175",,"D","T","D",,,"D",,,
50884,"https://bugs.eclipse.org/bugs/show_bug.cgi?id=50884","D","D",,"D","D",,"AC",,"D",
51609,"https://bugs.eclipse.org/bugs/show_bug.cgi?id=51609","D","D","D","D",,,,,,
52260,"https://bugs.eclipse.org/bugs/show_bug.cgi?id=52260",,,"D",,,,,,,
52363,"https://bugs.eclipse.org/bugs/show_bug.cgi?id=52363",,"D",,"D",,,"D",,"C",
52985,"https://bugs.eclipse.org/bugs/show_bug.cgi?id=52985",,"D",,,,"AC",,,,
53958,"https://bugs.eclipse.org/bugs/show_bug.cgi?id=53958",,"D","D",,"D",,,,"D",
54050,"https://bugs.eclipse.org/bugs/show_bug.cgi?id=54050",,,"D",,,,,,,
57037,"https://bugs.eclipse.org/bugs/show_bug.cgi?id=57037",,"D","D","D",,,,,"D",
57950,"https://bugs.eclipse.org/bugs/show_bug.cgi?id=57950","T","D",,"D",,,"AC",,,
60101,"https://bugs.eclipse.org/bugs/show_bug.cgi?id=60101","D","D","D","D",,,,,,
60308,"https://bugs.eclipse.org/bugs/show_bug.cgi?id=60308",,,"D",,,,,,,
60476,"https://bugs.eclipse.org/bugs/show_bug.cgi?id=60476",,"D","D",,,,,,,
60657,"https://bugs.eclipse.org/bugs/show_bug.cgi?id=60657",,"D","C",,,,"D",,,
61639,"https://bugs.eclipse.org/bugs/show_bug.cgi?id=61639",,,"D",,,,,"AC",,
61990,"https://bugs.eclipse.org/bugs/show_bug.cgi?id=61990","D","D",,,"D",,,,"D",
62957,"https://bugs.eclipse.org/bugs/show_bug.cgi?id=62957",,"D",,,,,,,"AC",
62997,"https://bugs.eclipse.org/bugs/show_bug.cgi?id=62997","D","D",,"D",,,,,,
63650,"https://bugs.eclipse.org/bugs/show_bug.cgi?id=63650","C","D",,,"C",,,,"D",
64431,"https://bugs.eclipse.org/bugs/show_bug.cgi?id=64431",,,"D",,,,,,,
64862,"https://bugs.eclipse.org/bugs/show_bug.cgi?id=64862",,,"D",,,,,,,
65539,"https://bugs.eclipse.org/bugs/show_bug.cgi?id=65539","D","D",,"D",,,,,,
65906,"https://bugs.eclipse.org/bugs/show_bug.cgi?id=65906","D","D","D",,,,,,,
66132,"https://bugs.eclipse.org/bugs/show_bug.cgi?id=66132",,"D",,,"D",,,,,
67045,"https://bugs.eclipse.org/bugs/show_bug.cgi?id=67045",,"D","D",,,,,,,
67940,"https://bugs.eclipse.org/bugs/show_bug.cgi?id=67940",,"D",,,,,,,,
68530,"https://bugs.eclipse.org/bugs/show_bug.cgi?id=68530","D","D",,,,,,,"D",
69678,"https://bugs.eclipse.org/bugs/show_bug.cgi?id=69678",,"D","D",,,,,,,
71240,"https://bugs.eclipse.org/bugs/show_bug.cgi?id=71240",,,"D",,,,,"AC",,
72121,"https://bugs.eclipse.org/bugs/show_bug.cgi?id=72121",,"D",,"D",,,,,,
72317,"https://bugs.eclipse.org/bugs/show_bug.cgi?id=72317",,"D",,,,,,,,
72511,"https://bugs.eclipse.org/bugs/show_bug.cgi?id=72511","D","D","D","D",,,,"AC",,
73299,"https://bugs.eclipse.org/bugs/show_bug.cgi?id=73299",,"D","D",,"D","AC",,,,
73947,"https://bugs.eclipse.org/bugs/show_bug.cgi?id=73947",,"D",,"D",,"AC",,,,
74264,"https://bugs.eclipse.org/bugs/show_bug.cgi?id=74264","D","D",,"D",,,,,,
75424,"https://bugs.eclipse.org/bugs/show_bug.cgi?id=75424","D",,"D",,,,,,,
75521,"https://bugs.eclipse.org/bugs/show_bug.cgi?id=75521",,"D",,"D","AC",,,,"AC",
75963,"https://bugs.eclipse.org/bugs/show_bug.cgi?id=75963",,,"D",,,,,,,
76190,"https://bugs.eclipse.org/bugs/show_bug.cgi?id=76190","D","D","D",,,,,,,
78045,"https://bugs.eclipse.org/bugs/show_bug.cgi?id=78045",,"D",,,,,,,,
78058,"https://bugs.eclipse.org/bugs/show_bug.cgi?id=78058",,"D","D",,,,,"AC",,
78818,"https://bugs.eclipse.org/bugs/show_bug.cgi?id=78818",,"D","C",,,,"AC",,,
79865,"https://bugs.eclipse.org/bugs/show_bug.cgi?id=79865",,"T",,,"AC","AC",,"C","AC",
79982,"https://bugs.eclipse.org/bugs/show_bug.cgi?id=79982",,"D","D",,,,,,,
80527,"https://bugs.eclipse.org/bugs/show_bug.cgi?id=80527",,,"D",,,,,,,
82710,"https://bugs.eclipse.org/bugs/show_bug.cgi?id=82710",,"D",,"C","D",,"AC","C","D",
83292,"https://bugs.eclipse.org/bugs/show_bug.cgi?id=83292","D","D",,"D","D",,,,"D",
86019,"https://bugs.eclipse.org/bugs/show_bug.cgi?id=86019",,,"D",,,,,,,
86230,"https://bugs.eclipse.org/bugs/show_bug.cgi?id=86230","D","D",,"D","AC",,,,"AC",
86338,"https://bugs.eclipse.org/bugs/show_bug.cgi?id=86338",,,"D",,,,,,,
86850,"https://bugs.eclipse.org/bugs/show_bug.cgi?id=86850",,"D","T",,,,,,,
87363,"https://bugs.eclipse.org/bugs/show_bug.cgi?id=87363",,"D","D","D",,,"D","D",,
87800,"https://bugs.eclipse.org/bugs/show_bug.cgi?id=87800",,,"D",,,,,,,
88385,"https://bugs.eclipse.org/bugs/show_bug.cgi?id=88385","D","C",,,,,,,,
88869,"https://bugs.eclipse.org/bugs/show_bug.cgi?id=88869","D","D",,"D","D",,,,"D",
89117,"https://bugs.eclipse.org/bugs/show_bug.cgi?id=89117","D","D",,,,,,,,
90341,"https://bugs.eclipse.org/bugs/show_bug.cgi?id=90341","D","D","D",,,,,,,
94850,"https://bugs.eclipse.org/bugs/show_bug.cgi?id=94850",,"D",,,"D",,,,"D",
95677,"https://bugs.eclipse.org/bugs/show_bug.cgi?id=95677",,,"D",,,,,,,
95696,"https://bugs.eclipse.org/bugs/show_bug.cgi?id=95696","D","D",,"D",,,,,,
95883,"https://bugs.eclipse.org/bugs/show_bug.cgi?id=95883",,"D",,,,,,,,
96712,"https://bugs.eclipse.org/bugs/show_bug.cgi?id=96712",,"D",,,,,,,,
96887,"https://bugs.eclipse.org/bugs/show_bug.cgi?id=96887","D","D","D","D",,,,,,
98412,"https://bugs.eclipse.org/bugs/show_bug.cgi?id=98412",,"D","D",,,,,,,
98722,"https://bugs.eclipse.org/bugs/show_bug.cgi?id=98722",,,"D",,,,,,,
98780,"https://bugs.eclipse.org/bugs/show_bug.cgi?id=98780","C","D",,,,,,"C","D",
98971,"https://bugs.eclipse.org/bugs/show_bug.cgi?id=98971",,"D","D",,,,,"D","D",
99059,"https://bugs.eclipse.org/bugs/show_bug.cgi?id=99059","D","D","D",,"D",,,"AC","D",
100193,"https://bugs.eclipse.org/bugs/show_bug.cgi?id=100193","D","D","D","D",,,,,,
102620,"https://bugs.eclipse.org/bugs/show_bug.cgi?id=102620",,"D",,"D",,,,,,
103553,"https://bugs.eclipse.org/bugs/show_bug.cgi?id=103553",,"D",,,,,,"AC",,
104448,"https://bugs.eclipse.org/bugs/show_bug.cgi?id=104448",,"D","D",,,,,,,
105368,"https://bugs.eclipse.org/bugs/show_bug.cgi?id=105368",,"D",,,,,,,,
106429,"https://bugs.eclipse.org/bugs/show_bug.cgi?id=106429",,,"D",,,,,,,
106554,"https://bugs.eclipse.org/bugs/show_bug.cgi?id=106554",,"D","D","D",,,"D",,,"D"
108559,"https://bugs.eclipse.org/bugs/show_bug.cgi?id=108559",,"D","D",,,,,,,
108729,"https://bugs.eclipse.org/bugs/show_bug.cgi?id=108729",,"D",,"D","AC",,,,"AC",
109835,"https://bugs.eclipse.org/bugs/show_bug.cgi?id=109835",,"D","D",,,,,"AC",,
112308,"https://bugs.eclipse.org/bugs/show_bug.cgi?id=112308","C","D",,"D","D",,,,"D",
113061,"https://bugs.eclipse.org/bugs/show_bug.cgi?id=113061",,"D","C",,,,,,,
113516,"https://bugs.eclipse.org/bugs/show_bug.cgi?id=113516",,"D","D","D",,,,,,
113724,"https://bugs.eclipse.org/bugs/show_bug.cgi?id=113724",,"D","D","D","D",,,,"D",
115579,"https://bugs.eclipse.org/bugs/show_bug.cgi?id=115579",,"D",,"D","D",,"D",,"D",
115709,"https://bugs.eclipse.org/bugs/show_bug.cgi?id=115709",,,"D",,,,,,,
116534,"https://bugs.eclipse.org/bugs/show_bug.cgi?id=116534",,"D","D",,,,,,,
116715,"https://bugs.eclipse.org/bugs/show_bug.cgi?id=116715",,"D","D","D",,,,,,
118203,"https://bugs.eclipse.org/bugs/show_bug.cgi?id=118203","D","T",,,,,,,,
118278,"https://bugs.eclipse.org/bugs/show_bug.cgi?id=118278",,"D","D",,,,,,,
118720,"https://bugs.eclipse.org/bugs/show_bug.cgi?id=118720",,"D","T",,,,,,,
119023,"https://bugs.eclipse.org/bugs/show_bug.cgi?id=119023",,"D",,"D","AC",,,,"AC",
121640,"https://bugs.eclipse.org/bugs/show_bug.cgi?id=121640",,"D",,"C","D",,"C",,,
124036,"https://bugs.eclipse.org/bugs/show_bug.cgi?id=124036",,"D","D",,,,,,,
124152,"https://bugs.eclipse.org/bugs/show_bug.cgi?id=124152","C","D",,,,,,,,
124910,"https://bugs.eclipse.org/bugs/show_bug.cgi?id=124910",,,"D",,,,,"AC",,
125135,"https://bugs.eclipse.org/bugs/show_bug.cgi?id=125135","D","D",,,,,,,,
125350,"https://bugs.eclipse.org/bugs/show_bug.cgi?id=125350","D","D","D",,,,,"D",,
127201,"https://bugs.eclipse.org/bugs/show_bug.cgi?id=127201","D","D","D",,,,,,"D",
127617,"https://bugs.eclipse.org/bugs/show_bug.cgi?id=127617",,"D",,,,,,,,
127730,"https://bugs.eclipse.org/bugs/show_bug.cgi?id=127730",,,"T",,,,,,,
128944,"https://bugs.eclipse.org/bugs/show_bug.cgi?id=128944",,"D","D",,,,,"AC",,
132088,"https://bugs.eclipse.org/bugs/show_bug.cgi?id=132088",,"D",,,,,,,,
132107,"https://bugs.eclipse.org/bugs/show_bug.cgi?id=132107",,"D",,,,,,,,
132219,"https://bugs.eclipse.org/bugs/show_bug.cgi?id=132219",,"D","T",,,,,,,
132719,"https://bugs.eclipse.org/bugs/show_bug.cgi?id=132719",,"D",,,,"AC",,,,
135728,"https://bugs.eclipse.org/bugs/show_bug.cgi?id=135728","D","D","D","D",,,,,,
136242,"https://bugs.eclipse.org/bugs/show_bug.cgi?id=136242",,"D","D","D",,"AC",,,,
137971,"https://bugs.eclipse.org/bugs/show_bug.cgi?id=137971","D",,"D",,,,,,,
138514,"https://bugs.eclipse.org/bugs/show_bug.cgi?id=138514",,"D","D",,,,,,,
139083,"https://bugs.eclipse.org/bugs/show_bug.cgi?id=139083","D","D","D","D",,,,,,
140866,"https://bugs.eclipse.org/bugs/show_bug.cgi?id=140866",,"D","D",,,,,"AC",,
140876,"https://bugs.eclipse.org/bugs/show_bug.cgi?id=140876","D","D",,,,,,"AC",,
141549,"https://bugs.eclipse.org/bugs/show_bug.cgi?id=141549",,"D","D",,,,,"D",,
144941,"https://bugs.eclipse.org/bugs/show_bug.cgi?id=144941",,"D","D","D","D",,,,"D",
145122,"https://bugs.eclipse.org/bugs/show_bug.cgi?id=145122",,,,,,,,,,
145877,"https://bugs.eclipse.org/bugs/show_bug.cgi?id=145877",,"D","D",,,,,,,
147649,"https://bugs.eclipse.org/bugs/show_bug.cgi?id=147649",,"D",,"D",,,,,,
148757,"https://bugs.eclipse.org/bugs/show_bug.cgi?id=148757",,"D",,"D",,"AC",,,"AC",
150606,"https://bugs.eclipse.org/bugs/show_bug.cgi?id=150606",,,,,,,,,,
151416,"https://bugs.eclipse.org/bugs/show_bug.cgi?id=151416",,"D",,,,,"AC",,,
151629,"https://bugs.eclipse.org/bugs/show_bug.cgi?id=151629",,"D","D",,,,,"C",,
152809,"https://bugs.eclipse.org/bugs/show_bug.cgi?id=152809","D","D",,,,,,,,
153234,"https://bugs.eclipse.org/bugs/show_bug.cgi?id=153234",,,"D",,,,,,,
153928,"https://bugs.eclipse.org/bugs/show_bug.cgi?id=153928","D","D","D",,,,,,,
153949,"https://bugs.eclipse.org/bugs/show_bug.cgi?id=153949",,"D","D",,,,,,,
154599,"https://bugs.eclipse.org/bugs/show_bug.cgi?id=154599",,"D","D",,,,,"AC",,
154668,"https://bugs.eclipse.org/bugs/show_bug.cgi?id=154668","D","D","D","D",,,,,,
155526,"https://bugs.eclipse.org/bugs/show_bug.cgi?id=155526",,"D","D","D",,,"AC",,,
155913,"https://bugs.eclipse.org/bugs/show_bug.cgi?id=155913",,"D",,"D",,,,,,
157392,"https://bugs.eclipse.org/bugs/show_bug.cgi?id=157392",,,,,,,,,,
157933,"https://bugs.eclipse.org/bugs/show_bug.cgi?id=157933",,"D","D","D",,"L",,,,
158511,"https://bugs.eclipse.org/bugs/show_bug.cgi?id=158511",,"D",,,,,,,,
159941,"https://bugs.eclipse.org/bugs/show_bug.cgi?id=159941","D","D","T","D",,,,,,
160907,"https://bugs.eclipse.org/bugs/show_bug.cgi?id=160907",,"D","D",,,,,,,
161472,"https://bugs.eclipse.org/bugs/show_bug.cgi?id=161472",,"D","D",,,,,,,
162788,"https://bugs.eclipse.org/bugs/show_bug.cgi?id=162788",,"D","D",,,,,,,
164140,"https://bugs.eclipse.org/bugs/show_bug.cgi?id=164140","D",,"D",,,,,,,
164945,"https://bugs.eclipse.org/bugs/show_bug.cgi?id=164945",,"D","D",,,,,,,
165342,"https://bugs.eclipse.org/bugs/show_bug.cgi?id=165342","D","D","D",,"D",,,"D","D",
166150,"https://bugs.eclipse.org/bugs/show_bug.cgi?id=166150",,"T",,,,,,,,
166200,"https://bugs.eclipse.org/bugs/show_bug.cgi?id=166200",,,"D",,,,,,,
166937,"https://bugs.eclipse.org/bugs/show_bug.cgi?id=166937",,"D",,,,,,,,
169312,"https://bugs.eclipse.org/bugs/show_bug.cgi?id=169312","D","D",,,,,,,,
169918,"https://bugs.eclipse.org/bugs/show_bug.cgi?id=169918",,,"D",,,,,,,
171248,"https://bugs.eclipse.org/bugs/show_bug.cgi?id=171248",,,"T",,,,,,,
171461,"https://bugs.eclipse.org/bugs/show_bug.cgi?id=171461","D","D",,"D","D",,,"AC","D","AC"
171670,"https://bugs.eclipse.org/bugs/show_bug.cgi?id=171670",,"D","D","D",,,,,,
172335,"https://bugs.eclipse.org/bugs/show_bug.cgi?id=172335",,"D","D",,,,,,,
172636,"https://bugs.eclipse.org/bugs/show_bug.cgi?id=172636","D","D","D","D","D",,,,"D",
173802,"https://bugs.eclipse.org/bugs/show_bug.cgi?id=173802","D","D",,"D",,,,,,
174813,"https://bugs.eclipse.org/bugs/show_bug.cgi?id=174813","D","D",,"D",,,,"AC",,
175174,"https://bugs.eclipse.org/bugs/show_bug.cgi?id=175174",,,"D",,,,,,,
175990,"https://bugs.eclipse.org/bugs/show_bug.cgi?id=175990","D","D",,"D","D",,,,"D",
176668,"https://bugs.eclipse.org/bugs/show_bug.cgi?id=176668",,"D","D","D",,,"AC",,,
177130,"https://bugs.eclipse.org/bugs/show_bug.cgi?id=177130","D","D","D","D",,"AC",,,,
179560,"https://bugs.eclipse.org/bugs/show_bug.cgi?id=179560","D",,"D",,,,,"AC",,
182214,"https://bugs.eclipse.org/bugs/show_bug.cgi?id=182214",,"D","D",,,,,,,
182633,"https://bugs.eclipse.org/bugs/show_bug.cgi?id=182633",,,"D",,,,,"AC",,
183551,"https://bugs.eclipse.org/bugs/show_bug.cgi?id=183551",,"D","D","D",,,"AC",,,
184638,"https://bugs.eclipse.org/bugs/show_bug.cgi?id=184638",,,"D",,,,,"AC",,
185056,"https://bugs.eclipse.org/bugs/show_bug.cgi?id=185056","D","D","D","D",,,,,,
186948,"https://bugs.eclipse.org/bugs/show_bug.cgi?id=186948",,"D","D","D",,,,,,
187150,"https://bugs.eclipse.org/bugs/show_bug.cgi?id=187150","D","D",,"D",,"AC",,"AC",,
187284,"https://bugs.eclipse.org/bugs/show_bug.cgi?id=187284","D","D",,"D",,"AC",,,,
187321,"https://bugs.eclipse.org/bugs/show_bug.cgi?id=187321","D","D",,"D",,"AC",,"AC",,
188140,"https://bugs.eclipse.org/bugs/show_bug.cgi?id=188140","D","D","T","D","D",,,,"D",
188535,"https://bugs.eclipse.org/bugs/show_bug.cgi?id=188535",,"D",,"D",,,,,"D",
189497,"https://bugs.eclipse.org/bugs/show_bug.cgi?id=189497","D","D","D","D",,,,"AC",,
189755,"https://bugs.eclipse.org/bugs/show_bug.cgi?id=189755","C","D",,"D",,,"AC",,,
190160,"https://bugs.eclipse.org/bugs/show_bug.cgi?id=190160","D","D","D",,,"AC",,,,
190982,"https://bugs.eclipse.org/bugs/show_bug.cgi?id=190982","D","D","D",,,,,"D",,
191284,"https://bugs.eclipse.org/bugs/show_bug.cgi?id=191284","D","D",,"D",,,,"AC","D",
191899,"https://bugs.eclipse.org/bugs/show_bug.cgi?id=191899",,"D",,"D","D",,,,"D",
192993,"https://bugs.eclipse.org/bugs/show_bug.cgi?id=192993","D","D",,,,,,,,
193962,"https://bugs.eclipse.org/bugs/show_bug.cgi?id=193962",,,,,,,"D",,,
195536,"https://bugs.eclipse.org/bugs/show_bug.cgi?id=195536","D","D","C","D",,,,,,
196264,"https://bugs.eclipse.org/bugs/show_bug.cgi?id=196264",,"D","D",,,,,,,
199084,"https://bugs.eclipse.org/bugs/show_bug.cgi?id=199084","D","D",,"C",,"AC","C",,,
199695,"https://bugs.eclipse.org/bugs/show_bug.cgi?id=199695",,"D",,,,,,"AC",,
200060,"https://bugs.eclipse.org/bugs/show_bug.cgi?id=200060","D","D",,"D",,,,,,
201897,"https://bugs.eclipse.org/bugs/show_bug.cgi?id=201897",,"D",,"D",,,,,,
202154,"https://bugs.eclipse.org/bugs/show_bug.cgi?id=202154",,,"D",,,,,"AC",,
204132,"https://bugs.eclipse.org/bugs/show_bug.cgi?id=204132",,,"D","D",,,"D","AC",,
204157,"https://bugs.eclipse.org/bugs/show_bug.cgi?id=204157",,"D","D","C",,,"AC","AC",,"AC"
204499,"https://bugs.eclipse.org/bugs/show_bug.cgi?id=204499",,,"D",,,,,,,
205104,"https://bugs.eclipse.org/bugs/show_bug.cgi?id=205104",,,"D",,,,,"AC",,
206191,"https://bugs.eclipse.org/bugs/show_bug.cgi?id=206191",,,"D",,,,,,,
207254,"https://bugs.eclipse.org/bugs/show_bug.cgi?id=207254","D","D","D","D",,"AC",,,,
208860,"https://bugs.eclipse.org/bugs/show_bug.cgi?id=208860","D","D","D","D","D",,"A",,"D",
209682,"https://bugs.eclipse.org/bugs/show_bug.cgi?id=209682","D","D",,"D",,,,"A",,
209694,"https://bugs.eclipse.org/bugs/show_bug.cgi?id=209694","D","D",,"D",,,"D",,,
209925,"https://bugs.eclipse.org/bugs/show_bug.cgi?id=209925","D","D",,,,,,,,
211978,"https://bugs.eclipse.org/bugs/show_bug.cgi?id=211978","D","D","D","D",,,"AC",,,
212087,"https://bugs.eclipse.org/bugs/show_bug.cgi?id=212087",,"D",,,,"A",,,,
214173,"https://bugs.eclipse.org/bugs/show_bug.cgi?id=214173",,,"D",,,,,,,
216219,"https://bugs.eclipse.org/bugs/show_bug.cgi?id=216219",,,"D",,,,,,,
216539,"https://bugs.eclipse.org/bugs/show_bug.cgi?id=216539",,"D","D",,"D",,,,"D",
217844,"https://bugs.eclipse.org/bugs/show_bug.cgi?id=217844",,,"T",,,,,,,
218515,"https://bugs.eclipse.org/bugs/show_bug.cgi?id=218515","D","D",,"D",,,,,,
219552,"https://bugs.eclipse.org/bugs/show_bug.cgi?id=219552",,"D",,,,,,,,
219804,"https://bugs.eclipse.org/bugs/show_bug.cgi?id=219804",,,"T",,,,,"AC",,
221937,"https://bugs.eclipse.org/bugs/show_bug.cgi?id=221937",,"D","D",,,,,,,
222092,"https://bugs.eclipse.org/bugs/show_bug.cgi?id=222092",,"D",,,,,,,"D",
223553,"https://bugs.eclipse.org/bugs/show_bug.cgi?id=223553","D","D","D",,,,,,,
225007,"https://bugs.eclipse.org/bugs/show_bug.cgi?id=225007","D","D","D","D",,,"D",,,
225040,"https://bugs.eclipse.org/bugs/show_bug.cgi?id=225040",,,"D",,,,,,,
225512,"https://bugs.eclipse.org/bugs/show_bug.cgi?id=225512","D","D","D",,,"AC",,,,
225850,"https://bugs.eclipse.org/bugs/show_bug.cgi?id=225850",,,"T",,,,,"A",,
228223,"https://bugs.eclipse.org/bugs/show_bug.cgi?id=228223",,"D",,"D",,,,,,
229028,"https://bugs.eclipse.org/bugs/show_bug.cgi?id=229028",,,,,,,,"AC",,
229806,"https://bugs.eclipse.org/bugs/show_bug.cgi?id=229806","D","D",,,"D",,,,"D",
230933,"https://bugs.eclipse.org/bugs/show_bug.cgi?id=230933","D","D",,,"D",,,,"D",
233556,"https://bugs.eclipse.org/bugs/show_bug.cgi?id=233556",,,"D",,,,,,,
235046,"https://bugs.eclipse.org/bugs/show_bug.cgi?id=235046",,"D",,"D",,,"D",,,
235058,"https://bugs.eclipse.org/bugs/show_bug.cgi?id=235058","D","D","D",,,,,,,
235929,"https://bugs.eclipse.org/bugs/show_bug.cgi?id=235929",,,"T",,,,,"AC",,
235933,"https://bugs.eclipse.org/bugs/show_bug.cgi?id=235933","D","D",,"D",,,,"C",,
236295,"https://bugs.eclipse.org/bugs/show_bug.cgi?id=236295",,"T",,,,,,"A",,
238089,"https://bugs.eclipse.org/bugs/show_bug.cgi?id=238089",,,"D",,,,,,,
238130,"https://bugs.eclipse.org/bugs/show_bug.cgi?id=238130",,"D","D",,"D",,,"AC","D",
241172,"https://bugs.eclipse.org/bugs/show_bug.cgi?id=241172",,"D",,"D",,,,,,
244801,"https://bugs.eclipse.org/bugs/show_bug.cgi?id=244801",,,"D",,,,,"AC",,
244994,"https://bugs.eclipse.org/bugs/show_bug.cgi?id=244994",,"D","D","D",,,"D",,"D",
246948,"https://bugs.eclipse.org/bugs/show_bug.cgi?id=246948","D","D",,"D","C",,,"AC",,
247213,"https://bugs.eclipse.org/bugs/show_bug.cgi?id=247213",,,"D",,"C",,,"AC","C",
247276,"https://bugs.eclipse.org/bugs/show_bug.cgi?id=247276",,"D",,"D",,,,,,
247768,"https://bugs.eclipse.org/bugs/show_bug.cgi?id=247768","D","D","D","D",,,,,,
247922,"https://bugs.eclipse.org/bugs/show_bug.cgi?id=247922","D","D",,"D","D",,"D",,"D",
249668,"https://bugs.eclipse.org/bugs/show_bug.cgi?id=249668",,"D",,"D","D",,"A",,"D",
250152,"https://bugs.eclipse.org/bugs/show_bug.cgi?id=250152",,,"D",,,,,"AC",,
250861,"https://bugs.eclipse.org/bugs/show_bug.cgi?id=250861","D","D","D",,,"AC",,,,
252759,"https://bugs.eclipse.org/bugs/show_bug.cgi?id=252759",,"D",,,,,,,,
252861,"https://bugs.eclipse.org/bugs/show_bug.cgi?id=252861","D",,"D",,,,,"AC",,"AC"
253490,"https://bugs.eclipse.org/bugs/show_bug.cgi?id=253490",,,"D",,,,,,,
253505,"https://bugs.eclipse.org/bugs/show_bug.cgi?id=253505",,,"D",,,,,,,
256474,"https://bugs.eclipse.org/bugs/show_bug.cgi?id=256474",,"D","D",,,,,,,
256757,"https://bugs.eclipse.org/bugs/show_bug.cgi?id=256757","D","D","D","D",,,,,,
258049,"https://bugs.eclipse.org/bugs/show_bug.cgi?id=258049","D","D",,"D",,,"D",,,
260649,"https://bugs.eclipse.org/bugs/show_bug.cgi?id=260649",,,"D",,,,,,,
262128,"https://bugs.eclipse.org/bugs/show_bug.cgi?id=262128","D","D",,"D",,,,,"AC",
262656,"https://bugs.eclipse.org/bugs/show_bug.cgi?id=262656","D","D",,,,,,"C","D",
262747,"https://bugs.eclipse.org/bugs/show_bug.cgi?id=262747",,"D",,"D",,"AC",,,,
264327,"https://bugs.eclipse.org/bugs/show_bug.cgi?id=264327",,,"D",,,,,"AC",,
265845,"https://bugs.eclipse.org/bugs/show_bug.cgi?id=265845",,,"D",,,,,,,
267563,"https://bugs.eclipse.org/bugs/show_bug.cgi?id=267563","D","D","D","D","D",,,,"D",
268264,"https://bugs.eclipse.org/bugs/show_bug.cgi?id=268264","D","D",,"D",,"A",,,"A",
269970,"https://bugs.eclipse.org/bugs/show_bug.cgi?id=269970",,"D",,,,,,,"D",
270417,"https://bugs.eclipse.org/bugs/show_bug.cgi?id=270417",,"D","D","D",,,,,,
270798,"https://bugs.eclipse.org/bugs/show_bug.cgi?id=270798","D","D","D","D",,,"D","A",,"D"
272668,"https://bugs.eclipse.org/bugs/show_bug.cgi?id=272668",,"D","D",,,,,,,
272692,"https://bugs.eclipse.org/bugs/show_bug.cgi?id=272692",,"D","D",,,,,"C",,
273011,"https://bugs.eclipse.org/bugs/show_bug.cgi?id=273011",,"L",,,,,,,,
274997,"https://bugs.eclipse.org/bugs/show_bug.cgi?id=274997","D","D",,,"D",,,"AC","D",
276271,"https://bugs.eclipse.org/bugs/show_bug.cgi?id=276271",,,"D",,,,,,,
277754,"https://bugs.eclipse.org/bugs/show_bug.cgi?id=277754",,,,,,,,,,
278219,"https://bugs.eclipse.org/bugs/show_bug.cgi?id=278219",,,"T",,,,,,,
278464,"https://bugs.eclipse.org/bugs/show_bug.cgi?id=278464",,,"D",,,,,,,
278951,"https://bugs.eclipse.org/bugs/show_bug.cgi?id=278951","D",,"D","D",,,,"AC",,
279317,"https://bugs.eclipse.org/bugs/show_bug.cgi?id=279317",,,"D",,,,,"AC",,
281140,"https://bugs.eclipse.org/bugs/show_bug.cgi?id=281140","D","D","D",,,,,,,
281893,"https://bugs.eclipse.org/bugs/show_bug.cgi?id=281893",,"D","D",,,,,,,
282037,"https://bugs.eclipse.org/bugs/show_bug.cgi?id=282037",,"D","D","D",,,,,,
282361,"https://bugs.eclipse.org/bugs/show_bug.cgi?id=282361","D","D",,,"D","AC",,,"D",
283130,"https://bugs.eclipse.org/bugs/show_bug.cgi?id=283130",,"D","D",,,,,,,
283431,"https://bugs.eclipse.org/bugs/show_bug.cgi?id=283431","D","D",,"D",,,"D",,,
285179,"https://bugs.eclipse.org/bugs/show_bug.cgi?id=285179",,"D","D",,,"AC",,"AC",,
286568,"https://bugs.eclipse.org/bugs/show_bug.cgi?id=286568",,"D",,"D",,,"D",,,
287008,"https://bugs.eclipse.org/bugs/show_bug.cgi?id=287008",,"D","D","D","AC",,"D",,"AC",
287844,"https://bugs.eclipse.org/bugs/show_bug.cgi?id=287844",,,"D",,,,,,,
288017,"https://bugs.eclipse.org/bugs/show_bug.cgi?id=288017",,"D","D",,,,,,"D",
288169,"https://bugs.eclipse.org/bugs/show_bug.cgi?id=288169","D","D",,"D","D",,,,"D",
289198,"https://bugs.eclipse.org/bugs/show_bug.cgi?id=289198",,"D",,"D","D",,"D",,"D","AC"
290809,"https://bugs.eclipse.org/bugs/show_bug.cgi?id=290809",,,"D",,,,,"AC",,"AC"
292443,"https://bugs.eclipse.org/bugs/show_bug.cgi?id=292443","D","D",,,"D",,,,"D",
294864,"https://bugs.eclipse.org/bugs/show_bug.cgi?id=294864",,"D","D",,,,,"AC",,
294983,"https://bugs.eclipse.org/bugs/show_bug.cgi?id=294983",,"D","D","D",,,,,,
295138,"https://bugs.eclipse.org/bugs/show_bug.cgi?id=295138",,"D","D","D",,,,,,
297345,"https://bugs.eclipse.org/bugs/show_bug.cgi?id=297345",,,"D",,,,,,,
297912,"https://bugs.eclipse.org/bugs/show_bug.cgi?id=297912",,,"D",,,,,"AC",,
297946,"https://bugs.eclipse.org/bugs/show_bug.cgi?id=297946","D","D",,"D","D",,"D",,"D",
298062,"https://bugs.eclipse.org/bugs/show_bug.cgi?id=298062",,"D","D","D",,,"D",,,"AC"
298579,"https://bugs.eclipse.org/bugs/show_bug.cgi?id=298579",,,"D",,,,,,,
298837,"https://bugs.eclipse.org/bugs/show_bug.cgi?id=298837",,"D",,"L",,,,"AC",,
298926,"https://bugs.eclipse.org/bugs/show_bug.cgi?id=298926",,"D",,,,,,,,
299011,"https://bugs.eclipse.org/bugs/show_bug.cgi?id=299011",,"D",,,,,,,,
299743,"https://bugs.eclipse.org/bugs/show_bug.cgi?id=299743",,"T","D",,,,,,,
301407,"https://bugs.eclipse.org/bugs/show_bug.cgi?id=301407",,"D","D",,,,,"AC",,
302185,"https://bugs.eclipse.org/bugs/show_bug.cgi?id=302185",,"D",,,,,,"AC",,"AC"
303039,"https://bugs.eclipse.org/bugs/show_bug.cgi?id=303039","D","D","T",,,,,"AC",,
303207,"https://bugs.eclipse.org/bugs/show_bug.cgi?id=303207",,,"T",,,,,"AC",,
305450,"https://bugs.eclipse.org/bugs/show_bug.cgi?id=305450","D","D","D","D",,,,,,
306006,"https://bugs.eclipse.org/bugs/show_bug.cgi?id=306006","D","D","D",,,,,"D",,
306824,"https://bugs.eclipse.org/bugs/show_bug.cgi?id=306824",,"D","C",,,,,"AC","D","AC"
307539,"https://bugs.eclipse.org/bugs/show_bug.cgi?id=307539","D","D",,"D",,,,,,
311530,"https://bugs.eclipse.org/bugs/show_bug.cgi?id=311530","D","D","D","D",,"AC",,,"D",
312087,"https://bugs.eclipse.org/bugs/show_bug.cgi?id=312087","D","D",,,,,,,,
312433,"https://bugs.eclipse.org/bugs/show_bug.cgi?id=312433",,,"T",,,,,"AC",,"AC"
313147,"https://bugs.eclipse.org/bugs/show_bug.cgi?id=313147","D","D","D",,,,,"AC",,
314313,"https://bugs.eclipse.org/bugs/show_bug.cgi?id=314313",,"D",,"D",,,,"AC",,
314468,"https://bugs.eclipse.org/bugs/show_bug.cgi?id=314468",,,"D",,,,,"AC",,
315354,"https://bugs.eclipse.org/bugs/show_bug.cgi?id=315354",,,"D",,,,,,,
316459,"https://bugs.eclipse.org/bugs/show_bug.cgi?id=316459",,"D","D",,,,,,,
316725,"https://bugs.eclipse.org/bugs/show_bug.cgi?id=316725",,"D",,,,,,,,
317425,"https://bugs.eclipse.org/bugs/show_bug.cgi?id=317425","D","T","D",,"AC",,,"AC","AC",
317569,"https://bugs.eclipse.org/bugs/show_bug.cgi?id=317569","D","D","D","D",,"AC","D",,,
319230,"https://bugs.eclipse.org/bugs/show_bug.cgi?id=319230","D","D","C","C",,,"AC","AC",,
319425,"https://bugs.eclipse.org/bugs/show_bug.cgi?id=319425","D","D",,"C",,"AC","AC","AC","AC","AC"
319637,"https://bugs.eclipse.org/bugs/show_bug.cgi?id=319637","D","D",,"D",,,,,,
319903,"https://bugs.eclipse.org/bugs/show_bug.cgi?id=319903","D","D",,,,,,,,
320281,"https://bugs.eclipse.org/bugs/show_bug.cgi?id=320281",,"D",,,,,,"D",,
320785,"https://bugs.eclipse.org/bugs/show_bug.cgi?id=320785",,"D",,,,"AC",,,,
321564,"https://bugs.eclipse.org/bugs/show_bug.cgi?id=321564","D","D","D","D",,,,"AC",,
321692,"https://bugs.eclipse.org/bugs/show_bug.cgi?id=321692",,"D","D",,,,,"AC",,
322264,"https://bugs.eclipse.org/bugs/show_bug.cgi?id=322264",,,"D",,,,,"AC",,
322291,"https://bugs.eclipse.org/bugs/show_bug.cgi?id=322291",,,"D",,,,,,,
323226,"https://bugs.eclipse.org/bugs/show_bug.cgi?id=323226",,"D",,"D",,,,,,
325264,"https://bugs.eclipse.org/bugs/show_bug.cgi?id=325264",,"D",,"D","D",,,"AC","D",
325755,"https://bugs.eclipse.org/bugs/show_bug.cgi?id=325755","D","D",,"D","D",,"C","C","D","AC"
326356,"https://bugs.eclipse.org/bugs/show_bug.cgi?id=326356",,,,,,,,"AC",,
327048,"https://bugs.eclipse.org/bugs/show_bug.cgi?id=327048","D","D",,,,"AC",,,,
327211,"https://bugs.eclipse.org/bugs/show_bug.cgi?id=327211","D","D","D",,,,,,,
328380,"https://bugs.eclipse.org/bugs/show_bug.cgi?id=328380","D","D",,"D","AC",,,"AC","AC",
329047,"https://bugs.eclipse.org/bugs/show_bug.cgi?id=329047",,"D",,"D",,,,,,
329317,"https://bugs.eclipse.org/bugs/show_bug.cgi?id=329317",,"D",,,,,,,,
329492,"https://bugs.eclipse.org/bugs/show_bug.cgi?id=329492",,,"D",,,,,"AC",,
329572,"https://bugs.eclipse.org/bugs/show_bug.cgi?id=329572","D","D",,,"D",,,,"D",
330015,"https://bugs.eclipse.org/bugs/show_bug.cgi?id=330015",,"D","T",,,,,,,
330854,"https://bugs.eclipse.org/bugs/show_bug.cgi?id=330854",,"D","D",,,,,"D",,
332896,"https://bugs.eclipse.org/bugs/show_bug.cgi?id=332896","D","D",,,"D",,,,"D",
333287,"https://bugs.eclipse.org/bugs/show_bug.cgi?id=333287",,"D",,"D",,,"A",,"D",
333518,"https://bugs.eclipse.org/bugs/show_bug.cgi?id=333518",,,"D",,,,,"AC",,
333906,"https://bugs.eclipse.org/bugs/show_bug.cgi?id=333906",,"T",,,,,,"AC",,
334301,"https://bugs.eclipse.org/bugs/show_bug.cgi?id=334301",,"D",,"D",,,,,,
334458,"https://bugs.eclipse.org/bugs/show_bug.cgi?id=334458",,,"D",,,,,,,
334986,"https://bugs.eclipse.org/bugs/show_bug.cgi?id=334986",,"D",,"D",,,,,,
335951,"https://bugs.eclipse.org/bugs/show_bug.cgi?id=335951",,"D","D",,,,,,,
336405,"https://bugs.eclipse.org/bugs/show_bug.cgi?id=336405",,"D",,"D",,,"D",,,
337104,"https://bugs.eclipse.org/bugs/show_bug.cgi?id=337104",,,"D",,,,,,,
337536,"https://bugs.eclipse.org/bugs/show_bug.cgi?id=337536",,"D",,,"D",,"C",,"D",
338795,"https://bugs.eclipse.org/bugs/show_bug.cgi?id=338795",,,"D",,,,,,,
338802,"https://bugs.eclipse.org/bugs/show_bug.cgi?id=338802","D","D",,"D",,"AC",,,,
339144,"https://bugs.eclipse.org/bugs/show_bug.cgi?id=339144",,,"D",,,,,,,
339784,"https://bugs.eclipse.org/bugs/show_bug.cgi?id=339784",,,"D",,,,,,,
341509,"https://bugs.eclipse.org/bugs/show_bug.cgi?id=341509","D","D","D",,,,,"AC",,
