ID,(?i)(observed|actual)\s*(behaviou?r|results?|response)?\s*(:|\\n|-),(?i)(expected|desired)\s*(behaviou?r|results?|response)?\s*(:|\\n|-),(?i)(steps|reproduce|str)\s*(:|\\n|-)
112,,,
122,,,
189,,,
227,,,
274,,,
285,,,
305,,,
353,,,
411,,,
475,,,
479,,,
523,,,
612,,,
642,,,
668,,,
682,,,
802,,,
803,,,
864,,,
947,,,
959,,,
973,,,
1056,,,22
1169,,,
1222,,,
1298,,,
1391,,,
1422,,,
1498,,,
1618,,,
1648,,,
1715,,,
1756,,,
1896,,,
1994,,,
2050,,,
2070,,,
2074,,,
2104,,,
2142,,,
2146,,,
2197,,,
2202,,,
2256,,,
2301,,,
2316,,,
2337,,,
2341,,,
2379,,,
2386,,,
2412,,,
2413,,,
2438,,,
2453,,,
2476,,,
2490,,,
2501,,,
2682,,,
2684,,,
2727,,,
2736,,,
2804,22,,22
2824,,,
2827,,,
2835,,,
2841,,,
2892,,,
2898,,,
2998,,,
3005,,,
3021,,,
3024,,,
3030,,,
3038,,,22
3170,,,
3224,,,
3294,,,
3310,,,
3397,,,
3418,,,
3419,,,
3427,,,
3482,,,
3502,,,
3505,,,
3551,,,
3571,,,
3772,,,
3952,,,22
4109,,,
4125,,,
4141,,,
4169,,,
4292,,,
4299,,,
4306,,,
4327,,,
4334,,,
4409,,,
4412,,,
4629,,,
4637,,22,
4665,,,
4668,,,
4745,,,
4790,,,
4794,,,
4878,,,
4912,,,
4994,,,
5008,,,
5018,,,
5053,,,
5063,,,
5151,,,
5163,,,
5185,,,
5200,,,
5202,,,
5205,,,
5207,,,23
5327,,,
5366,,,
5541,,,
5545,,,
5615,,,
5640,,,
5646,,,
5697,,,
5718,,,
5726,,,
5761,,,
5788,,,
5801,,,
5811,,,
5892,,,
5896,,,
5932,,,
5988,,,
6034,,,
6069,,,
6212,,,
6351,,,
6388,,,
6597,,,
6776,,,
6931,,,
7194,,22,
7198,,,
7309,,,
7341,,,
7409,,,
7410,,,
7510,,,
7518,,,
7667,,22,
7687,,,
7697,,,
7701,,,
7727,,,
7747,,,
7780,,,
7781,,,
7834,,,
7892,,,
7905,,,
7920,,,
7932,,,
7935,,,
7952,22,22,22
7968,,,
8000,,,
8074,,,
8131,,,
8160,,,
8179,,,
8193,,,
8237,,,
8260,23,23,23
8264,,,
8271,,,
8285,,,
8300,,,
8347,,,
8414,,,
8424,,,
8429,,,
8455,,,
8517,,,
8694,,,
8705,,,
8717,,,
8818,,22,
8856,,,
8881,,,
8944,,,
8978,,,
8988,,,
9024,,,
9040,,22,
9055,,,
9084,,,
9088,,,
9104,,,
9120,,,
9170,,,
9198,,,
9217,,,
9260,,,
9283,,,
9423,,,
9429,,,
9460,22,22,22
9489,,,
9499,,,
9518,,,
9614,,,
9684,,,
9708,,,
9794,,,
9843,,,
9871,,,
9930,,,
10079,,,
10102,,,
10124,,,
10242,,,
10257,,,
10262,,,
10294,,,23
10320,,,
10321,,,
10347,,,
10419,,,
10481,,,
10484,,,
10526,,,
10537,,,
10583,,,
10602,,,
10634,,,
10662,,,
10689,,,
10721,,,
10726,,,
10755,,,
10786,,,
10816,,,22
10978,,,
11002,,,
11058,,,
11121,,,
11237,,,
11296,,,22
11304,,,
11419,,,
11460,,,
11487,,,
11521,,,
11606,,,
11630,,,
11886,,,
11949,,,
11966,,,
11968,,,
11976,,,
12009,,,
12016,,,
12026,,,
12056,,,
12109,,,
12186,,22,22
12201,,,
12358,,,
12395,,,
12551,,,
12585,,22,22
12646,,,
12651,,,
12692,,,
12721,,,
12907,,,
12942,22,,
12951,,,
12955,,,
12979,,,
13018,,,
13055,,,
13071,,,
13084,,,
13176,,,
13181,,,
13296,,,
13304,,,
13323,,,
13356,,,
13360,,,
13376,,,
13378,,,
13384,,,
13432,,,22
13443,,,
13604,,,
13645,,,
13647,,,
13717,,,
13749,,,
13756,,,
13804,,,
13805,,,
13831,,,
13924,,,
13952,,22,
13960,,,
14112,,,
14123,,,
14131,,,
14152,,,
14197,,,
14206,,,
14219,,,
14224,,,
14243,,,
14342,,,
14365,,,
14384,,,
14429,,,
14452,,,
14526,,,
14578,,,
14609,,,
14652,,,
14664,,,
14797,,,
14820,,,
14832,,,
14888,,,
14944,,,
14974,,,
14981,,,
15121,,,
15136,,,
15146,,,
15196,,,
15222,,,23
15275,,,
15310,,,
15316,,,22
15363,,,
15373,,,
15387,,,
15389,,,
15443,,,
15467,,,
15508,,,
15588,,,
15607,,,
15624,,,
15792,,,
15795,,,
15809,,,
15817,,,22
16018,,,
16065,,,
16082,,,
16175,,,
16204,,,
16250,,,
16254,,,
16345,,,
16371,,,
16404,,,
16482,,,
16485,,,
16508,,,
16524,,,
16578,,,
16681,,,
16712,,,
16717,,,
16718,,,
16824,,,
16859,,,
16880,,,
16911,,,
17086,,,
17516,,,
17609,,,
17665,,,
17716,,,
17726,,,
17774,,,
17869,,,
17892,,,
17922,,,
17958,,,
17995,,,
18104,22,22,22
18139,,,
18169,,,
